…
### Number of individuals per group per construct per wave

``` r
d %>% 
  filter(!is.na(value)) %>% 
  distinct(ID, group, wave_ordered, construct) %>% 
  count(group, wave_ordered, construct) %>% 
  arrange(group, wave_ordered, construct)
```

    ## # A tibble: 44 × 4
    ##    group wave_ordered construct           n
    ##    <chr> <fct>        <chr>           <int>
    ##  1 CAUG  30m          EEG                53
    ##  2 CAUG  30m          IQ                 59
    ##  3 CAUG  30m          physical           57
    ##  4 CAUG  30m          psychopathology    59
    ##  5 CAUG  42m          EEG                48
    ##  6 CAUG  42m          IQ                 57
    ##  7 CAUG  42m          physical           55
    ##  8 CAUG  42m          psychopathology    57
    ##  9 CAUG  54m          IQ                 51
    ## 10 CAUG  54m          psychopathology    53
    ## # … with 34 more rows
…
d_psy_summary_overall <- 
  d_psy %>% 
  group_by(group, domain, measure) %>% 
  summarise(
    n = n(),
    mean = mean(value, na.rm = TRUE),
    sd = sd(value, na.rm = TRUE),
    se = sd / sqrt(n),
    min = min(value, na.rm = TRUE),
    max = max(value, na.rm = TRUE)
  )
d_psy_summary_overall
```

    ## # A tibble: 28 × 9
    ## # Groups:   group, domain [10]
    ##    group domain measure     n  mean    sd     se   min   max
    ##    <fct> <fct>  <chr>   <int> <dbl> <dbl>  <dbl> <dbl> <dbl>
    ##  1 CAUG  adhd   disc      106 4.27  4.61  0.448      0 17   
    ##  2 CAUG  adhd   hbq       214 0.752 0.453 0.0310     0  1.92
    ##  3 CAUG  adhd   itsea     113 0.918 0.563 0.0530     0  2   
    ##  4 CAUG  adhd   papa       52 5.79  5.49  0.761      0 18   
    ##  5 CAUG  dsed   dai       327 1.83  2.12  0.117      0 10   
    ##  6 CAUG  extern disc      106 3.74  3.92  0.381      0 17   
    ##  7 CAUG  extern hbq       211 0.486 0.429 0.0295     0  1.91
    ##  8 CAUG  extern itsea     113 0.559 0.430 0.0405     0  1.92
    ##  9 CAUG  extern papa       52 2.44  2.48  0.345      0 10   
    ## 10 CAUG  intern disc      106 1.17  2.34  0.227      0 18   
    ## # … with 18 more rows
…
