…
``` r
d_baseline %>% 
  count(group, male) %>% 
  group_by(group) %>% 
  mutate(per = n / sum(n))
```

    ## # A tibble: 136 x 5
    ## # Groups:   group [2]
    ##       ID group male      n    per
    ##    <dbl> <chr> <fct> <int>  <dbl>
    ##  1     1 FCG   0         1 0.0147
    ##  2     2 FCG   0         1 0.0147
    ##  3     3 FCG   1         1 0.0147
    ##  4     4 FCG   0         1 0.0147
    ##  5     5 FCG   0         1 0.0147
    ##  6     6 CAUG  0         1 0.0147
    ##  7     7 FCG   0         1 0.0147
    ##  8     8 CAUG  1         1 0.0147
    ##  9     9 CAUG  1         1 0.0147
    ## 10    10 CAUG  1         1 0.0147
    ## # … with 126 more rows

``` r
d_baseline %>% 
  count(group, ethnic) %>% 
  group_by(group) %>% 
  mutate(per = n / sum(n))
```

    ## # A tibble: 136 x 5
    ## # Groups:   group [2]
    ##       ID group ethnic       n    per
    ##    <dbl> <chr> <fct>    <int>  <dbl>
    ##  1     1 FCG   Romanian     1 0.0147
    ##  2     2 FCG   Rroma        1 0.0147
    ##  3     3 FCG   Romanian     1 0.0147
    ##  4     4 FCG   Romanian     1 0.0147
    ##  5     5 FCG   Romanian     1 0.0147
    ##  6     6 CAUG  Rroma        1 0.0147
    ##  7     7 FCG   Romanian     1 0.0147
    ##  8     8 CAUG  Rroma        1 0.0147
    ##  9     9 CAUG  Rroma        1 0.0147
    ## 10    10 CAUG  Romanian     1 0.0147
    ## # … with 126 more rows
…
## CONSORT diagram

### Total individuals per group

``` r
d %>% 
  filter(!is.na(value)) %>% 
  distinct(ID, group) %>% 
  count(group) 
```

    ## # A tibble: 130 x 3
    ## # Groups:   ID [130]
    ##       ID group     n
    ##    <dbl> <chr> <int>
    ##  1     1 FCG       1
    ##  2     2 FCG       1
    ##  3     3 FCG       1
    ##  4     5 FCG       1
    ##  5     6 CAUG      1
    ##  6     8 CAUG      1
    ##  7     9 CAUG      1
    ##  8    10 CAUG      1
    ##  9    11 FCG       1
    ## 10    12 CAUG      1
    ## # … with 120 more rows

### Total number of observations

``` r
d %>% 
  filter(!is.na(value)) %>% 
  count() 
```

    ## # A tibble: 130 x 2
    ## # Groups:   ID [130]
    ##       ID     n
    ##    <dbl> <int>
    ##  1     1    27
    ##  2     2    66
    ##  3     3    22
    ##  4     5    70
    ##  5     6    63
    ##  6     8    73
    ##  7     9    53
    ##  8    10    66
    ##  9    11    73
    ## 10    12    67
    ## # … with 120 more rows

### Total number of observations per group

``` r
d %>% 
  filter(!is.na(value)) %>% 
  count(group) 
```

    ## # A tibble: 130 x 3
    ## # Groups:   ID [130]
    ##       ID group     n
    ##    <dbl> <chr> <int>
    ##  1     1 FCG      27
    ##  2     2 FCG      66
    ##  3     3 FCG      22
    ##  4     5 FCG      70
    ##  5     6 CAUG     63
    ##  6     8 CAUG     73
    ##  7     9 CAUG     53
    ##  8    10 CAUG     66
    ##  9    11 FCG      73
    ## 10    12 CAUG     67
    ## # … with 120 more rows

### Total number of observations per wave

``` r
d %>% 
  filter(!is.na(value)) %>% 
  count(wave_ordered) 
```

    ## # A tibble: 707 x 3
    ## # Groups:   ID [130]
    ##       ID wave_ordered     n
    ##    <dbl> <fct>        <int>
    ##  1     1 30m             11
    ##  2     1 42m             10
    ##  3     1 54m              6
    ##  4     2 30m             11
    ##  5     2 42m             11
    ##  6     2 54m              6
    ##  7     2 8y              11
    ##  8     2 12y             13
    ##  9     2 16-18y          14
    ## 10     3 30m             11
    ## # … with 697 more rows

### Number of individuals per group per wave

``` r
d %>% 
  filter(!is.na(value)) %>% 
  distinct(ID, group, wave_ordered) %>% 
  count(group, wave_ordered)
```

    ## # A tibble: 707 x 4
    ## # Groups:   ID [130]
    ##       ID group wave_ordered     n
    ##    <dbl> <chr> <fct>        <int>
    ##  1     1 FCG   30m              1
    ##  2     1 FCG   42m              1
    ##  3     1 FCG   54m              1
    ##  4     2 FCG   30m              1
    ##  5     2 FCG   42m              1
    ##  6     2 FCG   54m              1
    ##  7     2 FCG   8y               1
    ##  8     2 FCG   12y              1
    ##  9     2 FCG   16-18y           1
    ## 10     3 FCG   30m              1
    ## # … with 697 more rows

### Number of observations per group per wave

``` r
d %>% 
  filter(!is.na(value)) %>% 
  count(group, wave_ordered) %>% 
  arrange(group, wave_ordered)
```

    ## # A tibble: 707 x 4
    ## # Groups:   ID [130]
    ##       ID group wave_ordered     n
    ##    <dbl> <chr> <fct>        <int>
    ##  1     6 CAUG  30m             11
    ##  2     8 CAUG  30m             11
    ##  3     9 CAUG  30m             11
    ##  4    10 CAUG  30m             11
    ##  5    12 CAUG  30m             11
    ##  6    13 CAUG  30m             11
    ##  7    14 CAUG  30m             11
    ##  8    15 CAUG  30m             11
    ##  9    17 CAUG  30m             11
    ## 10    20 CAUG  30m             11
    ## # … with 697 more rows

### Number of individuals per group per construct per wave

``` r
d %>% 
  filter(!is.na(value)) %>% 
  distinct(ID, group, wave_ordered, construct) %>% 
  count(group, wave_ordered, construct) %>% 
  arrange(group, wave_ordered, construct)
```

    ## # A tibble: 2,408 x 5
    ## # Groups:   ID [130]
    ##       ID group wave_ordered construct     n
    ##    <dbl> <chr> <fct>        <chr>     <int>
    ##  1     6 CAUG  30m          EEG           1
    ##  2     8 CAUG  30m          EEG           1
    ##  3     9 CAUG  30m          EEG           1
    ##  4    10 CAUG  30m          EEG           1
    ##  5    12 CAUG  30m          EEG           1
    ##  6    13 CAUG  30m          EEG           1
    ##  7    14 CAUG  30m          EEG           1
    ##  8    15 CAUG  30m          EEG           1
    ##  9    17 CAUG  30m          EEG           1
    ## 10    20 CAUG  30m          EEG           1
    ## # … with 2,398 more rows

### Number of observations per group per construct per wave

``` r
d %>% 
  filter(!is.na(value)) %>% 
  count(group, wave_ordered, construct) %>% 
  arrange(group, wave_ordered, construct)
```

    ## # A tibble: 2,408 x 5
    ## # Groups:   ID [130]
    ##       ID group wave_ordered construct     n
    ##    <dbl> <chr> <fct>        <chr>     <int>
    ##  1     6 CAUG  30m          EEG           2
    ##  2     8 CAUG  30m          EEG           2
    ##  3     9 CAUG  30m          EEG           2
    ##  4    10 CAUG  30m          EEG           2
    ##  5    12 CAUG  30m          EEG           2
    ##  6    13 CAUG  30m          EEG           2
    ##  7    14 CAUG  30m          EEG           2
    ##  8    15 CAUG  30m          EEG           2
    ##  9    17 CAUG  30m          EEG           2
    ## 10    20 CAUG  30m          EEG           2
    ## # … with 2,398 more rows
…
### Psychopathology: number of observations per wave per measure per domain

``` r
d %>% 
  filter(wave != "BL") %>% 
  filter(construct == "psychopathology") %>% 
  count(group, wave, measure, domain) %>% 
  arrange(wave, domain, measure, desc(n))
```

    ## # A tibble: 4,019 x 6
    ## # Groups:   ID [130]
    ##       ID group wave  measure domain     n
    ##    <dbl> <chr> <chr> <chr>   <chr>  <int>
    ##  1     2 FCG   12y   disc    adhd       1
    ##  2     5 FCG   12y   disc    adhd       1
    ##  3     6 CAUG  12y   disc    adhd       1
    ##  4     8 CAUG  12y   disc    adhd       1
    ##  5     9 CAUG  12y   disc    adhd       1
    ##  6    10 CAUG  12y   disc    adhd       1
    ##  7    11 FCG   12y   disc    adhd       1
    ##  8    12 CAUG  12y   disc    adhd       1
    ##  9    13 CAUG  12y   disc    adhd       1
    ## 10    14 CAUG  12y   disc    adhd       1
    ## # … with 4,009 more rows
…
### Psychopathology: Number of observations per wave per measure

``` r
d %>% 
  filter(wave != "BL") %>% 
  filter(construct == "psychopathology") %>% 
  count(wave, measure, informant) %>% 
  arrange(wave, desc(n))
```

    ## # A tibble: 1,729 x 5
    ## # Groups:   ID [130]
    ##       ID wave  measure informant     n
    ##    <dbl> <chr> <chr>   <fct>     <int>
    ##  1     2 12y   disc    P             3
    ##  2     5 12y   disc    P             3
    ##  3     5 12y   hbq     P             3
    ##  4     5 12y   hbq     T             3
    ##  5     6 12y   disc    P             3
    ##  6     6 12y   hbq     P             3
    ##  7     8 12y   disc    P             3
    ##  8     8 12y   hbq     P             3
    ##  9     8 12y   hbq     T             3
    ## 10     9 12y   disc    P             3
    ## # … with 1,719 more rows

### IQ: Number of observations per wave per measure

``` r
d %>% 
  filter(wave != "BL") %>% 
  filter(construct == "IQ") %>% 
  count(wave, measure) %>% 
  arrange(wave, desc(n))
```

    ## # A tibble: 651 x 4
    ## # Groups:   ID [127]
    ##       ID wave  measure     n
    ##    <dbl> <chr> <chr>   <int>
    ##  1     2 12y   wisc        1
    ##  2     5 12y   wisc        1
    ##  3     6 12y   wisc        1
    ##  4     8 12y   wisc        1
    ##  5     9 12y   wisc        1
    ##  6    10 12y   wisc        1
    ##  7    11 12y   wisc        1
    ##  8    12 12y   wisc        1
    ##  9    13 12y   wisc        1
    ## 10    14 12y   wisc        1
    ## # … with 641 more rows

### EEG: Number of observations per wave per group per measure

``` r
d %>% 
  filter(wave != "BL") %>% 
  filter(construct == "EEG") %>% 
  count(group, wave, measure) %>% 
  arrange(group, wave, desc(n))
```

    ## # A tibble: 1,041 x 5
    ## # Groups:   ID [127]
    ##       ID group wave  measure     n
    ##    <dbl> <chr> <chr> <chr>   <int>
    ##  1     6 CAUG  12y   alphaEC     1
    ##  2     6 CAUG  12y   alphaEO     1
    ##  3     8 CAUG  12y   alphaEC     1
    ##  4     8 CAUG  12y   alphaEO     1
    ##  5     9 CAUG  12y   alphaEC     1
    ##  6     9 CAUG  12y   alphaEO     1
    ##  7    10 CAUG  12y   alphaEC     1
    ##  8    10 CAUG  12y   alphaEO     1
    ##  9    12 CAUG  12y   alphaEC     1
    ## 10    12 CAUG  12y   alphaEO     1
    ## # … with 1,031 more rows
…
missing_data_FCG %>% 
  count(w30m, w42m, w54m, w8y, w12y, `w16-18y`)
```

    ## # A tibble: 65 x 8
    ## # Groups:   ID [65]
    ##       ID  w30m  w42m  w54m   w8y  w12y `w16-18y`     n
    ##    <dbl> <int> <int> <int> <int> <int>     <int> <int>
    ##  1     1     1     1     1    NA    NA        NA     1
    ##  2     2     1     1     1     1     1         1     1
    ##  3     3     1     1    NA    NA    NA        NA     1
    ##  4     5     1     1     1     1     1         1     1
    ##  5    11     1     1     1     1     1         1     1
    ##  6    16     1     1     1     1     1         1     1
    ##  7    18     1     1     1     1    NA        NA     1
    ##  8    19     1     1     1     1     1         1     1
    ##  9    21     1     1     1     1     1         1     1
    ## 10    23     1     1     1     1     1         1     1
    ## # … with 55 more rows
…
missing_data_CAUG %>% 
  count(w30m, w42m, w54m, w8y, w12y, `w16-18y`)
```

    ## # A tibble: 65 x 8
    ## # Groups:   ID [65]
    ##       ID  w30m  w42m  w54m   w8y  w12y `w16-18y`     n
    ##    <dbl> <int> <int> <int> <int> <int>     <int> <int>
    ##  1     6     1     1     1     1     1         1     1
    ##  2     8     1     1     1     1     1         1     1
    ##  3     9     1     1     1     1     1         1     1
    ##  4    10     1     1     1     1     1         1     1
    ##  5    12     1     1     1     1     1         1     1
    ##  6    13     1     1     1     1     1         1     1
    ##  7    14     1     1     1     1     1         1     1
    ##  8    15     1     1     1     1     1         1     1
    ##  9    17     1     1     1     1     1         1     1
    ## 10    20     1     1     1    NA     1         1     1
    ## # … with 55 more rows
…
# Remove cases with missing data for “value” from dataset

``` r
d <-
  d %>% 
  filter(!is.na(value))

d %>% 
  count(group)
```

    ## # A tibble: 130 x 3
    ## # Groups:   ID [130]
    ##       ID group     n
    ##    <dbl> <chr> <int>
    ##  1     1 FCG      27
    ##  2     2 FCG      66
    ##  3     3 FCG      22
    ##  4     5 FCG      70
    ##  5     6 CAUG     63
    ##  6     8 CAUG     73
    ##  7     9 CAUG     53
    ##  8    10 CAUG     66
    ##  9    11 FCG      73
    ## 10    12 CAUG     67
    ## # … with 120 more rows
…
d_psy_summary_overall <- 
  d_psy %>% 
  group_by(group, domain, measure) %>% 
  summarise(
    n = n(),
    mean = mean(value, na.rm = TRUE),
    sd = sd(value, na.rm = TRUE),
    se = sd / sqrt(n),
    min = min(value, na.rm = TRUE),
    max = max(value, na.rm = TRUE)
  )
d_psy_summary_overall
```

    ## # A tibble: 28 x 9
    ## # Groups:   group, domain [10]
    ##    group domain measure     n  mean    sd     se   min   max
    ##    <fct> <fct>  <chr>   <int> <dbl> <dbl>  <dbl> <dbl> <dbl>
    ##  1 CAUG  adhd   disc      106 4.27  4.61  0.448      0 17   
    ##  2 CAUG  adhd   hbq       226 0.692 0.398 0.0265     0  1.89
    ##  3 CAUG  adhd   itsea     113 0.918 0.563 0.0530     0  2   
    ##  4 CAUG  adhd   papa       52 5.79  5.49  0.761      0 18   
    ##  5 CAUG  dsed   dai       327 1.83  2.12  0.117      0 10   
    ##  6 CAUG  extern disc      106 3.74  3.92  0.381      0 17   
    ##  7 CAUG  extern hbq       211 0.486 0.429 0.0295     0  1.91
    ##  8 CAUG  extern itsea     113 0.559 0.430 0.0405     0  1.92
    ##  9 CAUG  extern papa       52 2.44  2.48  0.345      0 10   
    ## 10 CAUG  intern disc      106 1.17  2.34  0.227      0 18   
    ## # … with 18 more rows
…
